EESchema Schematic File Version 2
LIBS:power
LIBS:device
LIBS:switches
LIBS:relays
LIBS:motors
LIBS:transistors
LIBS:conn
LIBS:linear
LIBS:regul
LIBS:74xx
LIBS:cmos4000
LIBS:adc-dac
LIBS:memory
LIBS:xilinx
LIBS:microcontrollers
LIBS:dsp
LIBS:microchip
LIBS:analog_switches
LIBS:motorola
LIBS:texas
LIBS:intel
LIBS:audio
LIBS:interface
LIBS:digital-audio
LIBS:philips
LIBS:display
LIBS:cypress
LIBS:siliconi
LIBS:opto
LIBS:atmel
LIBS:contrib
LIBS:valves
LIBS:3pdt
LIBS:BassCompressor-cache
EELAYER 25 0
EELAYER END
$Descr A4 11693 8268
encoding utf-8
Sheet 4 5
Title ""
Date ""
Rev ""
Comp ""
Comment1 ""
Comment2 ""
Comment3 ""
Comment4 ""
$EndDescr
Text HLabel 2000 3600 0    60   Input ~ 0
Lo_in
Text HLabel 6700 2300 2    60   Input ~ 0
Lo_out
$Comp
L CP1 C15
U 1 1 5B1DEB41
P 2300 3600
F 0 "C15" H 2325 3700 50  0000 L CNN
F 1 "2.2u" H 2325 3500 50  0000 L CNN
F 2 "Capacitors_SMD:CP_Elec_4x5.3" H 2300 3600 50  0001 C CNN
F 3 "" H 2300 3600 50  0001 C CNN
	1    2300 3600
	0    -1   -1   0   
$EndComp
$Comp
L R R34
U 1 1 5B1DEB48
P 2800 3600
F 0 "R34" V 2880 3600 50  0000 C CNN
F 1 "10k" V 2800 3600 50  0000 C CNN
F 2 "Resistors_SMD:R_1206_HandSoldering" V 2730 3600 50  0001 C CNN
F 3 "" H 2800 3600 50  0001 C CNN
	1    2800 3600
	0    1    1    0   
$EndComp
$Comp
L C C17
U 1 1 5B1DEB4F
P 3750 3600
F 0 "C17" H 3775 3700 50  0000 L CNN
F 1 "100n" H 3775 3500 50  0000 L CNN
F 2 "Capacitors_SMD:C_1206_HandSoldering" H 3788 3450 50  0001 C CNN
F 3 "" H 3750 3600 50  0001 C CNN
	1    3750 3600
	0    1    1    0   
$EndComp
$Comp
L R R37
U 1 1 5B1DEB56
P 4100 3250
F 0 "R37" V 4180 3250 50  0000 C CNN
F 1 "200k" V 4100 3250 50  0000 C CNN
F 2 "Resistors_SMD:R_1206_HandSoldering" V 4030 3250 50  0001 C CNN
F 3 "" H 4100 3250 50  0001 C CNN
	1    4100 3250
	1    0    0    -1  
$EndComp
$Comp
L R R38
U 1 1 5B1DEB5D
P 4100 3900
F 0 "R38" V 4180 3900 50  0000 C CNN
F 1 "390k" V 4100 3900 50  0000 C CNN
F 2 "Resistors_SMD:R_1206_HandSoldering" V 4030 3900 50  0001 C CNN
F 3 "" H 4100 3900 50  0001 C CNN
	1    4100 3900
	1    0    0    -1  
$EndComp
$Comp
L Q_NPN_BCE Q10
U 1 1 5B1DEB64
P 4450 3600
F 0 "Q10" H 4650 3650 50  0000 L CNN
F 1 "BC547C" H 4650 3550 50  0000 L CNN
F 2 "TO_SOT_Packages_SMD:SOT-23_Handsoldering" H 4650 3700 50  0001 C CNN
F 3 "" H 4450 3600 50  0001 C CNN
	1    4450 3600
	1    0    0    -1  
$EndComp
$Comp
L Q_PNP_BCE Q11
U 1 1 5B1DEB6B
P 5050 3300
F 0 "Q11" H 5250 3350 50  0000 L CNN
F 1 "BC557C" H 5250 3250 50  0000 L CNN
F 2 "TO_SOT_Packages_SMD:SOT-23_Handsoldering" H 5250 3400 50  0001 C CNN
F 3 "" H 5050 3300 50  0001 C CNN
	1    5050 3300
	1    0    0    -1  
$EndComp
$Comp
L CP1 C18
U 1 1 5B1DEB72
P 4550 4050
F 0 "C18" H 4575 4150 50  0000 L CNN
F 1 "22u" H 4575 3950 50  0000 L CNN
F 2 "Capacitors_SMD:CP_Elec_4x5.3" H 4550 4050 50  0001 C CNN
F 3 "" H 4550 4050 50  0001 C CNN
	1    4550 4050
	1    0    0    -1  
$EndComp
$Comp
L R R41
U 1 1 5B1DEB79
P 4550 4450
F 0 "R41" V 4630 4450 50  0000 C CNN
F 1 "220" V 4550 4450 50  0000 C CNN
F 2 "Resistors_SMD:R_1206_HandSoldering" V 4480 4450 50  0001 C CNN
F 3 "" H 4550 4450 50  0001 C CNN
	1    4550 4450
	1    0    0    -1  
$EndComp
$Comp
L POT R40
U 1 1 5B1DEB80
P 4550 4800
F 0 "R40" V 4375 4800 50  0000 C CNN
F 1 "5k" V 4450 4800 50  0000 C CNN
F 2 "Potentiometers:Potentiometer_WirePads_Small" H 4550 4800 50  0001 C CNN
F 3 "" H 4550 4800 50  0001 C CNN
	1    4550 4800
	1    0    0    -1  
$EndComp
$Comp
L GND #PWR029
U 1 1 5B1DEB87
P 4550 5100
F 0 "#PWR029" H 4550 4850 50  0001 C CNN
F 1 "GND" H 4550 4950 50  0000 C CNN
F 2 "" H 4550 5100 50  0001 C CNN
F 3 "" H 4550 5100 50  0001 C CNN
	1    4550 5100
	1    0    0    -1  
$EndComp
$Comp
L R R39
U 1 1 5B1DEB8D
P 4550 3100
F 0 "R39" V 4630 3100 50  0000 C CNN
F 1 "22k" V 4550 3100 50  0000 C CNN
F 2 "Resistors_SMD:R_1206_HandSoldering" V 4480 3100 50  0001 C CNN
F 3 "" H 4550 3100 50  0001 C CNN
	1    4550 3100
	1    0    0    -1  
$EndComp
$Comp
L R R42
U 1 1 5B1DEB94
P 4850 3850
F 0 "R42" V 4930 3850 50  0000 C CNN
F 1 "10k" V 4850 3850 50  0000 C CNN
F 2 "Resistors_SMD:R_1206_HandSoldering" V 4780 3850 50  0001 C CNN
F 3 "" H 4850 3850 50  0001 C CNN
	1    4850 3850
	0    1    1    0   
$EndComp
$Comp
L GND #PWR030
U 1 1 5B1DEB9B
P 4100 4100
F 0 "#PWR030" H 4100 3850 50  0001 C CNN
F 1 "GND" H 4100 3950 50  0000 C CNN
F 2 "" H 4100 4100 50  0001 C CNN
F 3 "" H 4100 4100 50  0001 C CNN
	1    4100 4100
	1    0    0    -1  
$EndComp
$Comp
L R R43
U 1 1 5B1DEBA1
P 5150 4150
F 0 "R43" V 5230 4150 50  0000 C CNN
F 1 "4k7" V 5150 4150 50  0000 C CNN
F 2 "Resistors_SMD:R_1206_HandSoldering" V 5080 4150 50  0001 C CNN
F 3 "" H 5150 4150 50  0001 C CNN
	1    5150 4150
	1    0    0    -1  
$EndComp
$Comp
L GND #PWR031
U 1 1 5B1DEBA8
P 5150 4400
F 0 "#PWR031" H 5150 4150 50  0001 C CNN
F 1 "GND" H 5150 4250 50  0000 C CNN
F 2 "" H 5150 4400 50  0001 C CNN
F 3 "" H 5150 4400 50  0001 C CNN
	1    5150 4400
	1    0    0    -1  
$EndComp
$Comp
L C C19
U 1 1 5B1DEBAE
P 5750 3850
F 0 "C19" H 5775 3950 50  0000 L CNN
F 1 "10n" H 5775 3750 50  0000 L CNN
F 2 "Capacitors_SMD:C_1206_HandSoldering" H 5788 3700 50  0001 C CNN
F 3 "" H 5750 3850 50  0001 C CNN
	1    5750 3850
	0    1    1    0   
$EndComp
$Comp
L R R44
U 1 1 5B1DEBB5
P 6100 4050
F 0 "R44" V 6180 4050 50  0000 C CNN
F 1 "470k" V 6100 4050 50  0000 C CNN
F 2 "Resistors_SMD:R_1206_HandSoldering" V 6030 4050 50  0001 C CNN
F 3 "" H 6100 4050 50  0001 C CNN
	1    6100 4050
	1    0    0    -1  
$EndComp
$Comp
L D D4
U 1 1 5B1DEBBC
P 6400 4050
F 0 "D4" H 6400 4150 50  0000 C CNN
F 1 "BAT85" H 6400 3950 50  0000 C CNN
F 2 "Diodes_SMD:D_SOD-123" H 6400 4050 50  0001 C CNN
F 3 "" H 6400 4050 50  0001 C CNN
	1    6400 4050
	0    1    1    0   
$EndComp
$Comp
L GND #PWR032
U 1 1 5B1DEBC3
P 6250 4350
F 0 "#PWR032" H 6250 4100 50  0001 C CNN
F 1 "GND" H 6250 4200 50  0000 C CNN
F 2 "" H 6250 4350 50  0001 C CNN
F 3 "" H 6250 4350 50  0001 C CNN
	1    6250 4350
	1    0    0    -1  
$EndComp
$Comp
L Q_NPN_BCE Q13
U 1 1 5B1DEBC9
P 6800 3850
F 0 "Q13" H 6750 4050 50  0000 L CNN
F 1 "BC547C" H 6700 3550 50  0000 L CNN
F 2 "TO_SOT_Packages_SMD:SOT-23_Handsoldering" H 7000 3950 50  0001 C CNN
F 3 "" H 6800 3850 50  0001 C CNN
	1    6800 3850
	1    0    0    -1  
$EndComp
$Comp
L Q_NPN_BCE Q14
U 1 1 5B1DEBD0
P 7400 3850
F 0 "Q14" H 7350 4050 50  0000 L CNN
F 1 "BC547C" H 7350 3550 50  0000 L CNN
F 2 "TO_SOT_Packages_SMD:SOT-23_Handsoldering" H 7600 3950 50  0001 C CNN
F 3 "" H 7400 3850 50  0001 C CNN
	1    7400 3850
	-1   0    0    -1  
$EndComp
$Comp
L R R50
U 1 1 5B1DEBD7
P 8100 4050
F 0 "R50" V 8180 4050 50  0000 C CNN
F 1 "470k" V 8100 4050 50  0000 C CNN
F 2 "Resistors_SMD:R_1206_HandSoldering" V 8030 4050 50  0001 C CNN
F 3 "" H 8100 4050 50  0001 C CNN
	1    8100 4050
	-1   0    0    -1  
$EndComp
$Comp
L D D5
U 1 1 5B1DEBDE
P 7800 4050
F 0 "D5" H 7800 4150 50  0000 C CNN
F 1 "BAT85" H 7800 3950 50  0000 C CNN
F 2 "Diodes_SMD:D_SOD-123" H 7800 4050 50  0001 C CNN
F 3 "" H 7800 4050 50  0001 C CNN
	1    7800 4050
	0    -1   1    0   
$EndComp
$Comp
L GND #PWR033
U 1 1 5B1DEBE5
P 7950 4350
F 0 "#PWR033" H 7950 4100 50  0001 C CNN
F 1 "GND" H 7950 4200 50  0000 C CNN
F 2 "" H 7950 4350 50  0001 C CNN
F 3 "" H 7950 4350 50  0001 C CNN
	1    7950 4350
	-1   0    0    -1  
$EndComp
$Comp
L C C21
U 1 1 5B1DEBEB
P 8100 3600
F 0 "C21" H 8125 3700 50  0000 L CNN
F 1 "10n" H 8125 3500 50  0000 L CNN
F 2 "Capacitors_SMD:C_1206_HandSoldering" H 8138 3450 50  0001 C CNN
F 3 "" H 8100 3600 50  0001 C CNN
	1    8100 3600
	1    0    0    -1  
$EndComp
$Comp
L C C20
U 1 1 5B1DEBF2
P 5700 2900
F 0 "C20" H 5725 3000 50  0000 L CNN
F 1 "100n" H 5725 2800 50  0000 L CNN
F 2 "Capacitors_SMD:C_1206_HandSoldering" H 5738 2750 50  0001 C CNN
F 3 "" H 5700 2900 50  0001 C CNN
	1    5700 2900
	0    1    1    0   
$EndComp
$Comp
L R R45
U 1 1 5B1DEBF9
P 6050 2900
F 0 "R45" V 6130 2900 50  0000 C CNN
F 1 "100k" V 6050 2900 50  0000 C CNN
F 2 "Resistors_SMD:R_1206_HandSoldering" V 5980 2900 50  0001 C CNN
F 3 "" H 6050 2900 50  0001 C CNN
	1    6050 2900
	0    1    1    0   
$EndComp
$Comp
L Q_NPN_BCE Q12
U 1 1 5B1DEC00
P 6500 2900
F 0 "Q12" H 6700 2950 50  0000 L CNN
F 1 "BC547C" H 6700 2850 50  0000 L CNN
F 2 "TO_SOT_Packages_SMD:SOT-23_Handsoldering" H 6700 3000 50  0001 C CNN
F 3 "" H 6500 2900 50  0001 C CNN
	1    6500 2900
	1    0    0    -1  
$EndComp
$Comp
L R R47
U 1 1 5B1DEC07
P 6250 2650
F 0 "R47" V 6330 2650 50  0000 C CNN
F 1 "100k" V 6250 2650 50  0000 C CNN
F 2 "Resistors_SMD:R_1206_HandSoldering" V 6180 2650 50  0001 C CNN
F 3 "" H 6250 2650 50  0001 C CNN
	1    6250 2650
	1    0    0    -1  
$EndComp
$Comp
L R R46
U 1 1 5B1DEC0E
P 6250 3150
F 0 "R46" V 6330 3150 50  0000 C CNN
F 1 "16k" V 6250 3150 50  0000 C CNN
F 2 "Resistors_SMD:R_1206_HandSoldering" V 6180 3150 50  0001 C CNN
F 3 "" H 6250 3150 50  0001 C CNN
	1    6250 3150
	1    0    0    -1  
$EndComp
$Comp
L GND #PWR034
U 1 1 5B1DEC15
P 6250 3350
F 0 "#PWR034" H 6250 3100 50  0001 C CNN
F 1 "GND" H 6250 3200 50  0000 C CNN
F 2 "" H 6250 3350 50  0001 C CNN
F 3 "" H 6250 3350 50  0001 C CNN
	1    6250 3350
	1    0    0    -1  
$EndComp
$Comp
L R R48
U 1 1 5B1DEC1B
P 7150 2500
F 0 "R48" V 7230 2500 50  0000 C CNN
F 1 "4k7" V 7150 2500 50  0000 C CNN
F 2 "Resistors_SMD:R_1206_HandSoldering" V 7080 2500 50  0001 C CNN
F 3 "" H 7150 2500 50  0001 C CNN
	1    7150 2500
	0    1    1    0   
$EndComp
Text GLabel 7600 2500 2    60   Input ~ 0
Vcc
$Comp
L R RP49
U 1 1 5B1DEC23
P 7100 4400
F 0 "RP49" V 7180 4400 50  0000 C CNN
F 1 "100/1W" V 7100 4400 50  0000 C CNN
F 2 "Resistors_SMD:R_2512_HandSoldering" V 7030 4400 50  0001 C CNN
F 3 "" H 7100 4400 50  0001 C CNN
	1    7100 4400
	1    0    0    -1  
$EndComp
$Comp
L POT R51
U 1 1 5B1DEC2A
P 6850 4850
F 0 "R51" V 6675 4850 50  0000 C CNN
F 1 "5k" V 6750 4850 50  0000 C CNN
F 2 "Potentiometers:Potentiometer_WirePads_Small" H 6850 4850 50  0001 C CNN
F 3 "" H 6850 4850 50  0001 C CNN
	1    6850 4850
	0    1    -1   0   
$EndComp
Wire Wire Line
	2000 3600 2150 3600
Wire Wire Line
	2450 3600 2650 3600
Wire Wire Line
	2950 3600 3600 3600
Wire Wire Line
	3900 3600 4250 3600
Wire Wire Line
	4100 3400 4100 3750
Connection ~ 4100 3600
Wire Wire Line
	4550 3800 4550 3900
Wire Wire Line
	4550 4200 4550 4300
Wire Wire Line
	4550 4600 4550 4650
Wire Wire Line
	4550 4950 4550 5100
Wire Wire Line
	4550 5050 4750 5050
Wire Wire Line
	4750 5050 4750 4800
Wire Wire Line
	4750 4800 4700 4800
Connection ~ 4550 5050
Wire Wire Line
	4550 3300 4850 3300
Wire Wire Line
	4550 3250 4550 3400
Wire Wire Line
	4550 2950 4550 2900
Wire Wire Line
	4100 2900 5150 2900
Wire Wire Line
	4100 2900 4100 3100
Connection ~ 4550 3300
Connection ~ 4550 2900
Wire Wire Line
	4700 3850 4550 3850
Connection ~ 4550 3850
Wire Wire Line
	5150 2900 5150 3100
Wire Wire Line
	5150 3500 5150 4000
Wire Wire Line
	5000 3850 5600 3850
Wire Wire Line
	4100 4050 4100 4100
Connection ~ 5150 3850
Wire Wire Line
	5150 4400 5150 4300
Wire Wire Line
	5900 3850 6600 3850
Wire Wire Line
	6100 3850 6100 3900
Wire Wire Line
	6400 3850 6400 3900
Connection ~ 6100 3850
Wire Wire Line
	6100 4200 6100 4300
Wire Wire Line
	6100 4300 6400 4300
Wire Wire Line
	6400 4300 6400 4200
Connection ~ 6400 3850
Wire Wire Line
	6250 4350 6250 4300
Connection ~ 6250 4300
Wire Wire Line
	6900 3650 6900 3600
Wire Wire Line
	7300 3600 7300 3650
Wire Wire Line
	7300 4050 7300 4100
Wire Wire Line
	6900 4100 6900 4050
Wire Wire Line
	8100 4200 8100 4300
Wire Wire Line
	8100 4300 7800 4300
Wire Wire Line
	7800 4300 7800 4200
Wire Wire Line
	7950 4350 7950 4300
Connection ~ 7950 4300
Wire Wire Line
	7600 3850 8100 3850
Wire Wire Line
	7800 3850 7800 3900
Wire Wire Line
	8100 3750 8100 3900
Connection ~ 7800 3850
Connection ~ 8100 3850
Wire Wire Line
	5450 3850 5450 2900
Wire Wire Line
	5450 2900 5550 2900
Connection ~ 5450 3850
Wire Wire Line
	5850 2900 5900 2900
Wire Wire Line
	6250 2800 6250 3000
Wire Wire Line
	6200 2900 6300 2900
Connection ~ 6250 2900
Wire Wire Line
	6250 3300 6250 3350
Wire Wire Line
	6600 3100 6600 3350
Wire Wire Line
	6600 3350 6250 3350
Wire Wire Line
	6600 2300 6600 2700
Wire Wire Line
	6250 2500 7000 2500
Connection ~ 6600 2500
Wire Wire Line
	7300 2500 7600 2500
Wire Wire Line
	7300 4100 6900 4100
Wire Wire Line
	6900 3600 7300 3600
Wire Wire Line
	6900 2500 6900 2700
Wire Wire Line
	6900 2700 8100 2700
Wire Wire Line
	8100 2700 8100 3450
Connection ~ 6900 2500
Wire Wire Line
	7100 4250 7100 4100
Connection ~ 7100 4100
Wire Wire Line
	7000 4850 7100 4850
Wire Wire Line
	7100 4850 7100 4550
Wire Wire Line
	6850 4700 7100 4700
Connection ~ 7100 4700
$Comp
L CP1 C22
U 1 1 5B1DEC80
P 6500 5050
F 0 "C22" H 6525 5150 50  0000 L CNN
F 1 "2.2u" H 6525 4950 50  0000 L CNN
F 2 "Capacitors_SMD:CP_Elec_4x5.3" H 6500 5050 50  0001 C CNN
F 3 "" H 6500 5050 50  0001 C CNN
	1    6500 5050
	1    0    0    -1  
$EndComp
$Comp
L POT R52
U 1 1 5B1DEC87
P 6200 5050
F 0 "R52" V 6025 5050 50  0000 C CNN
F 1 "500k" V 6100 5050 50  0000 C CNN
F 2 "Potentiometers:Potentiometer_WirePads_Small" H 6200 5050 50  0001 C CNN
F 3 "" H 6200 5050 50  0001 C CNN
	1    6200 5050
	-1   0    0    1   
$EndComp
$Comp
L GND #PWR035
U 1 1 5B1DEC8E
P 6500 5250
F 0 "#PWR035" H 6500 5000 50  0001 C CNN
F 1 "GND" H 6500 5100 50  0000 C CNN
F 2 "" H 6500 5250 50  0001 C CNN
F 3 "" H 6500 5250 50  0001 C CNN
	1    6500 5250
	1    0    0    -1  
$EndComp
Wire Wire Line
	6500 5250 6500 5200
Wire Wire Line
	6200 5200 6200 5250
Wire Wire Line
	6050 5250 6500 5250
Wire Wire Line
	5200 4850 6700 4850
Wire Wire Line
	6500 4850 6500 4900
Wire Wire Line
	6200 4900 6200 4850
Connection ~ 6500 4850
Wire Wire Line
	6050 5050 6050 5250
Connection ~ 6200 5250
$Comp
L C C16
U 1 1 5B1DEC9D
P 3400 4000
F 0 "C16" H 3425 4100 50  0000 L CNN
F 1 "47n" H 3425 3900 50  0000 L CNN
F 2 "Capacitors_SMD:C_1206_HandSoldering" H 3438 3850 50  0001 C CNN
F 3 "" H 3400 4000 50  0001 C CNN
	1    3400 4000
	0    1    1    0   
$EndComp
Wire Wire Line
	3200 3600 3200 4200
Connection ~ 3200 3600
Wire Wire Line
	3250 4000 3200 4000
Connection ~ 3200 4000
$Comp
L R R35
U 1 1 5B1DECAF
P 3650 4150
F 0 "R35" V 3730 4150 50  0000 C CNN
F 1 "220k" V 3650 4150 50  0000 C CNN
F 2 "Resistors_SMD:R_1206_HandSoldering" V 3580 4150 50  0001 C CNN
F 3 "" H 3650 4150 50  0001 C CNN
	1    3650 4150
	1    0    0    -1  
$EndComp
Wire Wire Line
	3550 4000 3650 4000
Wire Wire Line
	3650 4300 3650 4500
Wire Wire Line
	3650 4400 3500 4400
$Comp
L R R36
U 1 1 5B1DECB9
P 3650 4650
F 0 "R36" V 3730 4650 50  0000 C CNN
F 1 "220k" V 3650 4650 50  0000 C CNN
F 2 "Resistors_SMD:R_1206_HandSoldering" V 3580 4650 50  0001 C CNN
F 3 "" H 3650 4650 50  0001 C CNN
	1    3650 4650
	1    0    0    -1  
$EndComp
Connection ~ 3650 4400
Wire Wire Line
	3650 4800 3650 5350
Wire Wire Line
	3650 5350 5300 5350
Wire Wire Line
	5200 5350 5200 4850
Connection ~ 6200 4850
$Comp
L Jumper_NO_Small JP2
U 1 1 5B1DECC5
P 5400 5350
F 0 "JP2" H 5400 5450 50  0000 C CNN
F 1 "vclf" H 5410 5290 50  0000 C CNN
F 2 "SMD_Packages:SMD-1206_Pol" H 5400 5350 50  0001 C CNN
F 3 "" H 5400 5350 50  0001 C CNN
	1    5400 5350
	1    0    0    -1  
$EndComp
Connection ~ 5200 5350
$Comp
L GND #PWR036
U 1 1 5B1DECCD
P 5500 5550
F 0 "#PWR036" H 5500 5300 50  0001 C CNN
F 1 "GND" H 5500 5400 50  0000 C CNN
F 2 "" H 5500 5550 50  0001 C CNN
F 3 "" H 5500 5550 50  0001 C CNN
	1    5500 5550
	1    0    0    -1  
$EndComp
Text GLabel 3200 5050 3    60   Input ~ 0
vbias
Wire Wire Line
	3200 4600 3200 5050
Text GLabel 7100 3600 1    60   Input ~ 0
Vcc
Text Label 7100 4100 2    60   ~ 0
ve2
Text GLabel 4550 2900 1    60   Input ~ 0
Vcc
Wire Wire Line
	6700 2300 6600 2300
Wire Wire Line
	5500 5350 5500 5550
$Comp
L Q_NJFET_SDG Q9
U 1 1 5B2657A1
P 3300 4400
F 0 "Q9" H 3500 4450 50  0000 L CNN
F 1 "BF545A.215" H 3500 4350 50  0000 L CNN
F 2 "TO_SOT_Packages_SMD:SOT-23_Handsoldering" H 3500 4500 50  0001 C CNN
F 3 "" H 3300 4400 50  0001 C CNN
	1    3300 4400
	-1   0    0    -1  
$EndComp
$EndSCHEMATC
