EESchema Schematic File Version 2
LIBS:power
LIBS:device
LIBS:switches
LIBS:relays
LIBS:motors
LIBS:transistors
LIBS:conn
LIBS:linear
LIBS:regul
LIBS:74xx
LIBS:cmos4000
LIBS:adc-dac
LIBS:memory
LIBS:xilinx
LIBS:microcontrollers
LIBS:dsp
LIBS:microchip
LIBS:analog_switches
LIBS:motorola
LIBS:texas
LIBS:intel
LIBS:audio
LIBS:interface
LIBS:digital-audio
LIBS:philips
LIBS:display
LIBS:cypress
LIBS:siliconi
LIBS:opto
LIBS:atmel
LIBS:contrib
LIBS:valves
LIBS:3pdt
LIBS:BassCompressor-cache
EELAYER 25 0
EELAYER END
$Descr A4 11693 8268
encoding utf-8
Sheet 3 5
Title ""
Date ""
Rev ""
Comp ""
Comment1 ""
Comment2 ""
Comment3 ""
Comment4 ""
$EndDescr
Text HLabel 1600 3650 0    60   Input ~ 0
Hi_in
Text HLabel 5200 3500 2    60   Input ~ 0
Hi_out
$Comp
L CP1 C6
U 1 1 5B1D8831
P 1900 3650
F 0 "C6" H 1925 3750 50  0000 L CNN
F 1 "2.2u" H 1925 3550 50  0000 L CNN
F 2 "Capacitors_SMD:CP_Elec_4x5.3" H 1900 3650 50  0001 C CNN
F 3 "" H 1900 3650 50  0001 C CNN
	1    1900 3650
	0    -1   -1   0   
$EndComp
$Comp
L R R18
U 1 1 5B1D892A
P 2400 3650
F 0 "R18" V 2480 3650 50  0000 C CNN
F 1 "10k" V 2400 3650 50  0000 C CNN
F 2 "Resistors_SMD:R_1206_HandSoldering" V 2330 3650 50  0001 C CNN
F 3 "" H 2400 3650 50  0001 C CNN
	1    2400 3650
	0    1    1    0   
$EndComp
$Comp
L C C7
U 1 1 5B1D8973
P 3350 3650
F 0 "C7" H 3375 3750 50  0000 L CNN
F 1 "100n" H 3375 3550 50  0000 L CNN
F 2 "Capacitors_SMD:C_1206_HandSoldering" H 3388 3500 50  0001 C CNN
F 3 "" H 3350 3650 50  0001 C CNN
	1    3350 3650
	0    1    1    0   
$EndComp
$Comp
L R R22
U 1 1 5B1D89C4
P 3700 3300
F 0 "R22" V 3780 3300 50  0000 C CNN
F 1 "220k" V 3700 3300 50  0000 C CNN
F 2 "Resistors_SMD:R_1206_HandSoldering" V 3630 3300 50  0001 C CNN
F 3 "" H 3700 3300 50  0001 C CNN
	1    3700 3300
	1    0    0    -1  
$EndComp
$Comp
L R R23
U 1 1 5B1D8A37
P 3700 3950
F 0 "R23" V 3780 3950 50  0000 C CNN
F 1 "390k" V 3700 3950 50  0000 C CNN
F 2 "Resistors_SMD:R_1206_HandSoldering" V 3630 3950 50  0001 C CNN
F 3 "" H 3700 3950 50  0001 C CNN
	1    3700 3950
	1    0    0    -1  
$EndComp
$Comp
L Q_NPN_BCE Q5
U 1 1 5B1D8A9B
P 4050 3650
F 0 "Q5" H 4250 3700 50  0000 L CNN
F 1 "BC547C" H 4250 3600 50  0000 L CNN
F 2 "TO_SOT_Packages_SMD:SOT-23_Handsoldering" H 4250 3750 50  0001 C CNN
F 3 "" H 4050 3650 50  0001 C CNN
	1    4050 3650
	1    0    0    -1  
$EndComp
$Comp
L Q_PNP_BCE Q6
U 1 1 5B1D8AF4
P 4650 3350
F 0 "Q6" H 4850 3400 50  0000 L CNN
F 1 "BC557C" H 4850 3300 50  0000 L CNN
F 2 "TO_SOT_Packages_SMD:SOT-23_Handsoldering" H 4850 3450 50  0001 C CNN
F 3 "" H 4650 3350 50  0001 C CNN
	1    4650 3350
	1    0    0    -1  
$EndComp
$Comp
L CP1 C10
U 1 1 5B1D8B4F
P 4150 4100
F 0 "C10" H 4175 4200 50  0000 L CNN
F 1 "22u" H 4175 4000 50  0000 L CNN
F 2 "Capacitors_SMD:CP_Elec_4x5.3" H 4150 4100 50  0001 C CNN
F 3 "" H 4150 4100 50  0001 C CNN
	1    4150 4100
	1    0    0    -1  
$EndComp
$Comp
L R R24
U 1 1 5B1D8BF6
P 4150 4500
F 0 "R24" V 4230 4500 50  0000 C CNN
F 1 "220" V 4150 4500 50  0000 C CNN
F 2 "Resistors_SMD:R_1206_HandSoldering" V 4080 4500 50  0001 C CNN
F 3 "" H 4150 4500 50  0001 C CNN
	1    4150 4500
	1    0    0    -1  
$EndComp
$Comp
L POT R25
U 1 1 5B1D8C7F
P 4150 4850
F 0 "R25" V 3975 4850 50  0000 C CNN
F 1 "5k" V 4050 4850 50  0000 C CNN
F 2 "Potentiometers:Potentiometer_WirePads_Small" H 4150 4850 50  0001 C CNN
F 3 "" H 4150 4850 50  0001 C CNN
	1    4150 4850
	1    0    0    -1  
$EndComp
$Comp
L GND #PWR018
U 1 1 5B1D8DA4
P 4150 5150
F 0 "#PWR018" H 4150 4900 50  0001 C CNN
F 1 "GND" H 4150 5000 50  0000 C CNN
F 2 "" H 4150 5150 50  0001 C CNN
F 3 "" H 4150 5150 50  0001 C CNN
	1    4150 5150
	1    0    0    -1  
$EndComp
$Comp
L R R15
U 1 1 5B1D8E6F
P 4150 3150
F 0 "R15" V 4230 3150 50  0000 C CNN
F 1 "22k" V 4150 3150 50  0000 C CNN
F 2 "Resistors_SMD:R_1206_HandSoldering" V 4080 3150 50  0001 C CNN
F 3 "" H 4150 3150 50  0001 C CNN
	1    4150 3150
	1    0    0    -1  
$EndComp
$Comp
L R R20
U 1 1 5B1D8F42
P 4450 3900
F 0 "R20" V 4530 3900 50  0000 C CNN
F 1 "10k" V 4450 3900 50  0000 C CNN
F 2 "Resistors_SMD:R_1206_HandSoldering" V 4380 3900 50  0001 C CNN
F 3 "" H 4450 3900 50  0001 C CNN
	1    4450 3900
	0    1    1    0   
$EndComp
$Comp
L R R21
U 1 1 5B1D90D9
P 4750 4200
F 0 "R21" V 4830 4200 50  0000 C CNN
F 1 "4k7" V 4750 4200 50  0000 C CNN
F 2 "Resistors_SMD:R_1206_HandSoldering" V 4680 4200 50  0001 C CNN
F 3 "" H 4750 4200 50  0001 C CNN
	1    4750 4200
	1    0    0    -1  
$EndComp
$Comp
L C C11
U 1 1 5B1D91BC
P 5350 3900
F 0 "C11" H 5375 4000 50  0000 L CNN
F 1 "10n" H 5375 3800 50  0000 L CNN
F 2 "Capacitors_SMD:C_1206_HandSoldering" H 5388 3750 50  0001 C CNN
F 3 "" H 5350 3900 50  0001 C CNN
	1    5350 3900
	0    1    1    0   
$EndComp
$Comp
L R R26
U 1 1 5B1D926F
P 5700 4100
F 0 "R26" V 5780 4100 50  0000 C CNN
F 1 "470k" V 5700 4100 50  0000 C CNN
F 2 "Resistors_SMD:R_1206_HandSoldering" V 5630 4100 50  0001 C CNN
F 3 "" H 5700 4100 50  0001 C CNN
	1    5700 4100
	1    0    0    -1  
$EndComp
$Comp
L D D2
U 1 1 5B1D92D6
P 6000 4100
F 0 "D2" H 6000 4200 50  0000 C CNN
F 1 "BAT85" H 6000 4000 50  0000 C CNN
F 2 "Diodes_SMD:D_SOD-123" H 6000 4100 50  0001 C CNN
F 3 "" H 6000 4100 50  0001 C CNN
	1    6000 4100
	0    1    1    0   
$EndComp
$Comp
L Q_NPN_BCE Q7
U 1 1 5B1D93F0
P 6400 3900
F 0 "Q7" H 6400 4100 50  0000 L CNN
F 1 "BC547C" H 6300 3600 50  0000 L CNN
F 2 "TO_SOT_Packages_SMD:SOT-23_Handsoldering" H 6600 4000 50  0001 C CNN
F 3 "" H 6400 3900 50  0001 C CNN
	1    6400 3900
	1    0    0    -1  
$EndComp
$Comp
L Q_NPN_BCE Q8
U 1 1 5B1D9684
P 7000 3900
F 0 "Q8" H 7000 4100 50  0000 L CNN
F 1 "BC547C" H 6900 3600 50  0000 L CNN
F 2 "TO_SOT_Packages_SMD:SOT-23_Handsoldering" H 7200 4000 50  0001 C CNN
F 3 "" H 7000 3900 50  0001 C CNN
	1    7000 3900
	-1   0    0    -1  
$EndComp
$Comp
L R R31
U 1 1 5B1D9AE0
P 7700 4100
F 0 "R31" V 7780 4100 50  0000 C CNN
F 1 "470k" V 7700 4100 50  0000 C CNN
F 2 "Resistors_SMD:R_1206_HandSoldering" V 7630 4100 50  0001 C CNN
F 3 "" H 7700 4100 50  0001 C CNN
	1    7700 4100
	-1   0    0    -1  
$EndComp
$Comp
L D D3
U 1 1 5B1D9AE6
P 7400 4100
F 0 "D3" H 7400 4200 50  0000 C CNN
F 1 "BAT85" H 7400 4000 50  0000 C CNN
F 2 "Diodes_SMD:D_SOD-123" H 7400 4100 50  0001 C CNN
F 3 "" H 7400 4100 50  0001 C CNN
	1    7400 4100
	0    -1   1    0   
$EndComp
$Comp
L GND #PWR019
U 1 1 5B1D9AEC
P 7550 4400
F 0 "#PWR019" H 7550 4150 50  0001 C CNN
F 1 "GND" H 7550 4250 50  0000 C CNN
F 2 "" H 7550 4400 50  0001 C CNN
F 3 "" H 7550 4400 50  0001 C CNN
	1    7550 4400
	-1   0    0    -1  
$EndComp
$Comp
L C C13
U 1 1 5B1D9D66
P 7700 3650
F 0 "C13" H 7725 3750 50  0000 L CNN
F 1 "10n" H 7725 3550 50  0000 L CNN
F 2 "Capacitors_SMD:C_1206_HandSoldering" H 7738 3500 50  0001 C CNN
F 3 "" H 7700 3650 50  0001 C CNN
	1    7700 3650
	1    0    0    -1  
$EndComp
$Comp
L C C12
U 1 1 5B1D9EB3
P 5300 2950
F 0 "C12" H 5325 3050 50  0000 L CNN
F 1 "100n" H 5325 2850 50  0000 L CNN
F 2 "Capacitors_SMD:C_1206_HandSoldering" H 5338 2800 50  0001 C CNN
F 3 "" H 5300 2950 50  0001 C CNN
	1    5300 2950
	0    1    1    0   
$EndComp
$Comp
L R R27
U 1 1 5B1D9F12
P 5650 2950
F 0 "R27" V 5730 2950 50  0000 C CNN
F 1 "100k" V 5650 2950 50  0000 C CNN
F 2 "Resistors_SMD:R_1206_HandSoldering" V 5580 2950 50  0001 C CNN
F 3 "" H 5650 2950 50  0001 C CNN
	1    5650 2950
	0    1    1    0   
$EndComp
$Comp
L Q_NPN_BCE Q22
U 1 1 5B1DA0F3
P 6100 2950
F 0 "Q22" H 6300 3000 50  0000 L CNN
F 1 "BC547C" H 6300 2900 50  0000 L CNN
F 2 "TO_SOT_Packages_SMD:SOT-23_Handsoldering" H 6300 3050 50  0001 C CNN
F 3 "" H 6100 2950 50  0001 C CNN
	1    6100 2950
	1    0    0    -1  
$EndComp
$Comp
L R R28
U 1 1 5B1DA15A
P 5850 2700
F 0 "R28" V 5930 2700 50  0000 C CNN
F 1 "100k" V 5850 2700 50  0000 C CNN
F 2 "Resistors_SMD:R_1206_HandSoldering" V 5780 2700 50  0001 C CNN
F 3 "" H 5850 2700 50  0001 C CNN
	1    5850 2700
	1    0    0    -1  
$EndComp
$Comp
L R R30
U 1 1 5B1DA1D9
P 5850 3200
F 0 "R30" V 5930 3200 50  0000 C CNN
F 1 "16k" V 5850 3200 50  0000 C CNN
F 2 "Resistors_SMD:R_1206_HandSoldering" V 5780 3200 50  0001 C CNN
F 3 "" H 5850 3200 50  0001 C CNN
	1    5850 3200
	1    0    0    -1  
$EndComp
$Comp
L GND #PWR020
U 1 1 5B1DA359
P 5850 3400
F 0 "#PWR020" H 5850 3150 50  0001 C CNN
F 1 "GND" H 5850 3250 50  0000 C CNN
F 2 "" H 5850 3400 50  0001 C CNN
F 3 "" H 5850 3400 50  0001 C CNN
	1    5850 3400
	1    0    0    -1  
$EndComp
$Comp
L R R29
U 1 1 5B1DA65E
P 6750 2550
F 0 "R29" V 6830 2550 50  0000 C CNN
F 1 "4k7" V 6750 2550 50  0000 C CNN
F 2 "Resistors_SMD:R_1206_HandSoldering" V 6680 2550 50  0001 C CNN
F 3 "" H 6750 2550 50  0001 C CNN
	1    6750 2550
	0    1    1    0   
$EndComp
Text GLabel 7200 2550 2    60   Input ~ 0
Vcc
$Comp
L R RP33
U 1 1 5B1DAAD2
P 6700 4450
F 0 "RP33" V 6780 4450 50  0000 C CNN
F 1 "100/1W" V 6700 4450 50  0000 C CNN
F 2 "Resistors_SMD:R_2512_HandSoldering" V 6630 4450 50  0001 C CNN
F 3 "" H 6700 4450 50  0001 C CNN
	1    6700 4450
	1    0    0    -1  
$EndComp
$Comp
L POT R33
U 1 1 5B1DAB94
P 6450 4900
F 0 "R33" V 6275 4900 50  0000 C CNN
F 1 "5k" V 6350 4900 50  0000 C CNN
F 2 "Potentiometers:Potentiometer_WirePads_Small" H 6450 4900 50  0001 C CNN
F 3 "" H 6450 4900 50  0001 C CNN
	1    6450 4900
	0    1    -1   0   
$EndComp
$Comp
L CP1 C14
U 1 1 5B1DB00B
P 6100 5100
F 0 "C14" H 6125 5200 50  0000 L CNN
F 1 "2.2u" H 6125 5000 50  0000 L CNN
F 2 "Capacitors_SMD:CP_Elec_4x5.3" H 6100 5100 50  0001 C CNN
F 3 "" H 6100 5100 50  0001 C CNN
	1    6100 5100
	1    0    0    -1  
$EndComp
$Comp
L POT R32
U 1 1 5B1DB06E
P 5800 5100
F 0 "R32" V 5625 5100 50  0000 C CNN
F 1 "500k" V 5700 5100 50  0000 C CNN
F 2 "Potentiometers:Potentiometer_WirePads_Small" H 5800 5100 50  0001 C CNN
F 3 "" H 5800 5100 50  0001 C CNN
	1    5800 5100
	-1   0    0    1   
$EndComp
$Comp
L GND #PWR021
U 1 1 5B1DB0D7
P 6100 5300
F 0 "#PWR021" H 6100 5050 50  0001 C CNN
F 1 "GND" H 6100 5150 50  0000 C CNN
F 2 "" H 6100 5300 50  0001 C CNN
F 3 "" H 6100 5300 50  0001 C CNN
	1    6100 5300
	1    0    0    -1  
$EndComp
$Comp
L C C9
U 1 1 5B1DB3A8
P 3000 4050
F 0 "C9" H 3025 4150 50  0000 L CNN
F 1 "47n" H 3025 3950 50  0000 L CNN
F 2 "Capacitors_SMD:C_1206_HandSoldering" H 3038 3900 50  0001 C CNN
F 3 "" H 3000 4050 50  0001 C CNN
	1    3000 4050
	0    1    1    0   
$EndComp
$Comp
L R R16
U 1 1 5B1DB783
P 3250 4200
F 0 "R16" V 3330 4200 50  0000 C CNN
F 1 "220k" V 3250 4200 50  0000 C CNN
F 2 "Resistors_SMD:R_1206_HandSoldering" V 3180 4200 50  0001 C CNN
F 3 "" H 3250 4200 50  0001 C CNN
	1    3250 4200
	1    0    0    -1  
$EndComp
$Comp
L R R17
U 1 1 5B1DB90A
P 3250 4700
F 0 "R17" V 3330 4700 50  0000 C CNN
F 1 "220k" V 3250 4700 50  0000 C CNN
F 2 "Resistors_SMD:R_1206_HandSoldering" V 3180 4700 50  0001 C CNN
F 3 "" H 3250 4700 50  0001 C CNN
	1    3250 4700
	1    0    0    -1  
$EndComp
$Comp
L Jumper_NO_Small JP1
U 1 1 5B1DBA81
P 5000 5400
F 0 "JP1" H 5000 5480 50  0000 C CNN
F 1 "vchf" H 5010 5340 50  0000 C CNN
F 2 "SMD_Packages:SMD-1206_Pol" H 5000 5400 50  0001 C CNN
F 3 "" H 5000 5400 50  0001 C CNN
	1    5000 5400
	1    0    0    -1  
$EndComp
$Comp
L GND #PWR022
U 1 1 5B1DBC30
P 5200 5400
F 0 "#PWR022" H 5200 5150 50  0001 C CNN
F 1 "GND" H 5200 5250 50  0000 C CNN
F 2 "" H 5200 5400 50  0001 C CNN
F 3 "" H 5200 5400 50  0001 C CNN
	1    5200 5400
	0    -1   -1   0   
$EndComp
Text GLabel 2800 5100 3    60   Input ~ 0
vbias
Text GLabel 6700 3650 1    60   Input ~ 0
Vcc
Text Label 6700 4150 2    60   ~ 0
ve1
Text GLabel 4150 2950 1    60   Input ~ 0
Vcc
Wire Wire Line
	1600 3650 1750 3650
Wire Wire Line
	2050 3650 2250 3650
Wire Wire Line
	2550 3650 3200 3650
Wire Wire Line
	3500 3650 3850 3650
Wire Wire Line
	3700 3450 3700 3800
Connection ~ 3700 3650
Wire Wire Line
	4150 3850 4150 3950
Wire Wire Line
	4150 4250 4150 4350
Wire Wire Line
	4150 4650 4150 4700
Wire Wire Line
	4150 5000 4150 5150
Wire Wire Line
	4150 5100 4350 5100
Wire Wire Line
	4350 5100 4350 4850
Wire Wire Line
	4350 4850 4300 4850
Connection ~ 4150 5100
Wire Wire Line
	4150 3350 4450 3350
Wire Wire Line
	4150 3300 4150 3450
Wire Wire Line
	4150 3000 4150 2950
Wire Wire Line
	3700 2950 4750 2950
Wire Wire Line
	3700 2950 3700 3150
Connection ~ 4150 3350
Connection ~ 4150 2950
Wire Wire Line
	4300 3900 4150 3900
Connection ~ 4150 3900
Wire Wire Line
	4750 2950 4750 3150
Wire Wire Line
	4750 3550 4750 4050
Wire Wire Line
	4600 3900 5200 3900
Connection ~ 4750 3900
Wire Wire Line
	5500 3900 6200 3900
Wire Wire Line
	5700 3900 5700 3950
Wire Wire Line
	6000 3900 6000 3950
Connection ~ 5700 3900
Connection ~ 6000 3900
Wire Wire Line
	6500 3700 6500 3650
Wire Wire Line
	6900 3650 6900 3700
Wire Wire Line
	6900 4100 6900 4150
Wire Wire Line
	6500 4150 6500 4100
Wire Wire Line
	7700 4250 7700 4350
Wire Wire Line
	7700 4350 7400 4350
Wire Wire Line
	7400 4350 7400 4250
Wire Wire Line
	7550 4400 7550 4350
Connection ~ 7550 4350
Wire Wire Line
	7200 3900 7700 3900
Wire Wire Line
	7400 3900 7400 3950
Wire Wire Line
	7700 3800 7700 3950
Connection ~ 7400 3900
Connection ~ 7700 3900
Wire Wire Line
	5050 3900 5050 2950
Wire Wire Line
	5050 2950 5150 2950
Connection ~ 5050 3900
Wire Wire Line
	5450 2950 5500 2950
Wire Wire Line
	5850 2850 5850 3050
Wire Wire Line
	5800 2950 5900 2950
Connection ~ 5850 2950
Wire Wire Line
	5850 3350 5850 3400
Wire Wire Line
	6200 3150 6200 3400
Wire Wire Line
	6200 3400 5850 3400
Wire Wire Line
	6200 2750 6200 2550
Wire Wire Line
	5850 2550 6600 2550
Connection ~ 6200 2550
Wire Wire Line
	6900 2550 7200 2550
Wire Wire Line
	6900 4150 6500 4150
Wire Wire Line
	6500 3650 6900 3650
Wire Wire Line
	6500 2550 6500 2750
Wire Wire Line
	6500 2750 7700 2750
Wire Wire Line
	7700 2750 7700 3500
Connection ~ 6500 2550
Wire Wire Line
	6700 4300 6700 4150
Connection ~ 6700 4150
Wire Wire Line
	6600 4900 6700 4900
Wire Wire Line
	6700 4900 6700 4600
Wire Wire Line
	6450 4750 6700 4750
Connection ~ 6700 4750
Wire Wire Line
	6100 5300 6100 5250
Wire Wire Line
	5800 5250 5800 5300
Wire Wire Line
	5650 5300 6100 5300
Wire Wire Line
	4800 4900 6300 4900
Wire Wire Line
	6100 4900 6100 4950
Wire Wire Line
	5800 4950 5800 4900
Connection ~ 6100 4900
Wire Wire Line
	5650 5100 5650 5300
Connection ~ 5800 5300
Wire Wire Line
	2800 3650 2800 4250
Connection ~ 2800 3650
Wire Wire Line
	2850 4050 2800 4050
Connection ~ 2800 4050
Wire Wire Line
	3150 4050 3250 4050
Wire Wire Line
	3250 4350 3250 4550
Wire Wire Line
	3250 4450 3100 4450
Connection ~ 3250 4450
Wire Wire Line
	3250 4850 3250 5400
Wire Wire Line
	3250 5400 4900 5400
Wire Wire Line
	4800 5400 4800 4900
Connection ~ 5800 4900
Connection ~ 4800 5400
Wire Wire Line
	5200 5400 5100 5400
Wire Wire Line
	5200 3500 5050 3500
Connection ~ 5050 3500
Wire Wire Line
	2800 4650 2800 5100
$Comp
L GND #PWR025
U 1 1 5B218017
P 3700 4100
F 0 "#PWR025" H 3700 3850 50  0001 C CNN
F 1 "GND" H 3700 3950 50  0000 C CNN
F 2 "" H 3700 4100 50  0001 C CNN
F 3 "" H 3700 4100 50  0001 C CNN
	1    3700 4100
	1    0    0    -1  
$EndComp
$Comp
L GND #PWR026
U 1 1 5B218328
P 4750 4350
F 0 "#PWR026" H 4750 4100 50  0001 C CNN
F 1 "GND" H 4750 4200 50  0000 C CNN
F 2 "" H 4750 4350 50  0001 C CNN
F 3 "" H 4750 4350 50  0001 C CNN
	1    4750 4350
	1    0    0    -1  
$EndComp
$Comp
L GND #PWR027
U 1 1 5B2186BF
P 5700 4250
F 0 "#PWR027" H 5700 4000 50  0001 C CNN
F 1 "GND" H 5700 4100 50  0000 C CNN
F 2 "" H 5700 4250 50  0001 C CNN
F 3 "" H 5700 4250 50  0001 C CNN
	1    5700 4250
	1    0    0    -1  
$EndComp
$Comp
L GND #PWR028
U 1 1 5B2189B8
P 6000 4250
F 0 "#PWR028" H 6000 4000 50  0001 C CNN
F 1 "GND" H 6000 4100 50  0000 C CNN
F 2 "" H 6000 4250 50  0001 C CNN
F 3 "" H 6000 4250 50  0001 C CNN
	1    6000 4250
	1    0    0    -1  
$EndComp
$Comp
L Q_NJFET_SDG Q19
U 1 1 5B26496F
P 2900 4450
F 0 "Q19" H 3100 4500 50  0000 L CNN
F 1 "BF545A.215" H 3100 4400 50  0000 L CNN
F 2 "TO_SOT_Packages_SMD:SOT-23_Handsoldering" H 3100 4550 50  0001 C CNN
F 3 "" H 2900 4450 50  0001 C CNN
	1    2900 4450
	-1   0    0    -1  
$EndComp
$EndSCHEMATC
