EESchema Schematic File Version 2
LIBS:power
LIBS:device
LIBS:switches
LIBS:relays
LIBS:motors
LIBS:transistors
LIBS:conn
LIBS:linear
LIBS:regul
LIBS:74xx
LIBS:cmos4000
LIBS:adc-dac
LIBS:memory
LIBS:xilinx
LIBS:microcontrollers
LIBS:dsp
LIBS:microchip
LIBS:analog_switches
LIBS:motorola
LIBS:texas
LIBS:intel
LIBS:audio
LIBS:interface
LIBS:digital-audio
LIBS:philips
LIBS:display
LIBS:cypress
LIBS:siliconi
LIBS:opto
LIBS:atmel
LIBS:contrib
LIBS:valves
LIBS:3pdt
LIBS:BassCompressor-cache
EELAYER 25 0
EELAYER END
$Descr A4 11693 8268
encoding utf-8
Sheet 2 5
Title ""
Date ""
Rev ""
Comp ""
Comment1 ""
Comment2 ""
Comment3 ""
Comment4 ""
$EndDescr
Text HLabel 2300 3800 0    60   Input ~ 0
GuitarInput
Text HLabel 9650 4450 2    60   Input ~ 0
InHigh
Text HLabel 8150 4650 2    60   Input ~ 0
InLow
$Comp
L R R67
U 1 1 5B1A57B7
P 2700 4100
F 0 "R67" V 2780 4100 50  0000 C CNN
F 1 "4M7" V 2700 4100 50  0000 C CNN
F 2 "Resistors_SMD:R_1206_HandSoldering" V 2630 4100 50  0001 C CNN
F 3 "" H 2700 4100 50  0001 C CNN
	1    2700 4100
	1    0    0    -1  
$EndComp
$Comp
L R R1
U 1 1 5B1A5818
P 3400 3800
F 0 "R1" V 3480 3800 50  0000 C CNN
F 1 "4k7" V 3400 3800 50  0000 C CNN
F 2 "Resistors_SMD:R_1206_HandSoldering" V 3330 3800 50  0001 C CNN
F 3 "" H 3400 3800 50  0001 C CNN
	1    3400 3800
	0    1    1    0   
$EndComp
$Comp
L C C1
U 1 1 5B1A587B
P 2900 3800
F 0 "C1" V 2750 3800 50  0000 L CNN
F 1 "100n" V 3050 3800 50  0000 L CNN
F 2 "Capacitors_SMD:C_1206_HandSoldering" H 2938 3650 50  0001 C CNN
F 3 "" H 2900 3800 50  0001 C CNN
	1    2900 3800
	0    1    1    0   
$EndComp
$Comp
L C C2
U 1 1 5B1A5902
P 3700 4100
F 0 "C2" H 3725 4200 50  0000 L CNN
F 1 "100p" H 3725 4000 50  0000 L CNN
F 2 "Capacitors_SMD:C_1206_HandSoldering" H 3738 3950 50  0001 C CNN
F 3 "" H 3700 4100 50  0001 C CNN
	1    3700 4100
	1    0    0    -1  
$EndComp
$Comp
L R R2
U 1 1 5B1A5963
P 4100 3800
F 0 "R2" V 4180 3800 50  0000 C CNN
F 1 "680k" V 4100 3800 50  0000 C CNN
F 2 "Resistors_SMD:R_1206_HandSoldering" V 4030 3800 50  0001 C CNN
F 3 "" H 4100 3800 50  0001 C CNN
	1    4100 3800
	0    1    1    0   
$EndComp
$Comp
L R R4
U 1 1 5B1A599A
P 4450 4100
F 0 "R4" V 4530 4100 50  0000 C CNN
F 1 "1M" V 4450 4100 50  0000 C CNN
F 2 "Resistors_SMD:R_1206_HandSoldering" V 4380 4100 50  0001 C CNN
F 3 "" H 4450 4100 50  0001 C CNN
	1    4450 4100
	1    0    0    -1  
$EndComp
$Comp
L SW_SPST SW2
U 1 1 5B1A5BE2
P 4100 3450
F 0 "SW2" H 4100 3575 50  0000 C CNN
F 1 "-6 dB" H 4100 3350 50  0000 C CNN
F 2 "Wire_Connections_Bridges:WireConnection_1.00mmDrill" H 4100 3450 50  0001 C CNN
F 3 "" H 4100 3450 50  0001 C CNN
	1    4100 3450
	1    0    0    -1  
$EndComp
$Comp
L Q_NPN_BCE Q1
U 1 1 5B1D1EF3
P 4800 3800
F 0 "Q1" H 5000 3850 50  0000 L CNN
F 1 "BC547C" H 5000 3750 50  0000 L CNN
F 2 "TO_SOT_Packages_SMD:SOT-23_Handsoldering" H 5000 3900 50  0001 C CNN
F 3 "" H 4800 3800 50  0001 C CNN
	1    4800 3800
	1    0    0    -1  
$EndComp
$Comp
L Q_NPN_BCE Q3
U 1 1 5B1D1FBD
P 5400 3400
F 0 "Q3" H 5600 3450 50  0000 L CNN
F 1 "BC547C" H 5600 3350 50  0000 L CNN
F 2 "TO_SOT_Packages_SMD:SOT-23_Handsoldering" H 5600 3500 50  0001 C CNN
F 3 "" H 5400 3400 50  0001 C CNN
	1    5400 3400
	1    0    0    -1  
$EndComp
$Comp
L R R10
U 1 1 5B1D2036
P 4900 3150
F 0 "R10" V 4980 3150 50  0000 C CNN
F 1 "4k7" V 4900 3150 50  0000 C CNN
F 2 "Resistors_SMD:R_1206_HandSoldering" V 4830 3150 50  0001 C CNN
F 3 "" H 4900 3150 50  0001 C CNN
	1    4900 3150
	1    0    0    -1  
$EndComp
Text GLabel 4900 2700 0    60   Input ~ 0
Vcc
$Comp
L R R5
U 1 1 5B1D2288
P 4900 4250
F 0 "R5" V 4980 4250 50  0000 C CNN
F 1 "4k7" V 4900 4250 50  0000 C CNN
F 2 "Resistors_SMD:R_1206_HandSoldering" V 4830 4250 50  0001 C CNN
F 3 "" H 4900 4250 50  0001 C CNN
	1    4900 4250
	1    0    0    -1  
$EndComp
$Comp
L R R14
U 1 1 5B1D2333
P 5500 3900
F 0 "R14" V 5580 3900 50  0000 C CNN
F 1 "2k2" V 5500 3900 50  0000 C CNN
F 2 "Resistors_SMD:R_1206_HandSoldering" V 5430 3900 50  0001 C CNN
F 3 "" H 5500 3900 50  0001 C CNN
	1    5500 3900
	1    0    0    -1  
$EndComp
$Comp
L R R6
U 1 1 5B1D23C0
P 5900 3600
F 0 "R6" V 5980 3600 50  0000 C CNN
F 1 "10k" V 5900 3600 50  0000 C CNN
F 2 "Resistors_SMD:R_1206_HandSoldering" V 5830 3600 50  0001 C CNN
F 3 "" H 5900 3600 50  0001 C CNN
	1    5900 3600
	0    1    1    0   
$EndComp
$Comp
L GND #PWR08
U 1 1 5B1D258B
P 4900 4600
F 0 "#PWR08" H 4900 4350 50  0001 C CNN
F 1 "GND" H 4900 4450 50  0000 C CNN
F 2 "" H 4900 4600 50  0001 C CNN
F 3 "" H 4900 4600 50  0001 C CNN
	1    4900 4600
	1    0    0    -1  
$EndComp
$Comp
L GND #PWR09
U 1 1 5B1D25B9
P 5500 4050
F 0 "#PWR09" H 5500 3800 50  0001 C CNN
F 1 "GND" H 5500 3900 50  0000 C CNN
F 2 "" H 5500 4050 50  0001 C CNN
F 3 "" H 5500 4050 50  0001 C CNN
	1    5500 4050
	1    0    0    -1  
$EndComp
$Comp
L POT_Dual_Separate R8
U 1 1 5B1D27E5
P 6400 3600
F 0 "R8" V 6225 3600 50  0000 C CNN
F 1 "50k" V 6300 3600 50  0000 C CNN
F 2 "Resistors_THT:R_Array_SIP6" H 6400 3600 50  0001 C CNN
F 3 "" H 6400 3600 50  0001 C CNN
	1    6400 3600
	0    -1   -1   0   
$EndComp
$Comp
L POT_Dual_Separate R8
U 2 1 5B1D283A
P 7500 3600
F 0 "R8" V 7325 3600 50  0000 C CNN
F 1 "50k" V 7400 3600 50  0000 C CNN
F 2 "Resistors_THT:R_Array_SIP6" H 7500 3600 50  0001 C CNN
F 3 "" H 7500 3600 50  0001 C CNN
	2    7500 3600
	0    -1   -1   0   
$EndComp
$Comp
L R R7
U 1 1 5B1D2E4C
P 6950 3600
F 0 "R7" V 7030 3600 50  0000 C CNN
F 1 "10k" V 6950 3600 50  0000 C CNN
F 2 "Resistors_SMD:R_1206_HandSoldering" V 6880 3600 50  0001 C CNN
F 3 "" H 6950 3600 50  0001 C CNN
	1    6950 3600
	0    1    1    0   
$EndComp
$Comp
L C C3
U 1 1 5B1D2FF2
P 6700 3950
F 0 "C3" H 6725 4050 50  0000 L CNN
F 1 "5n" H 6725 3850 50  0000 L CNN
F 2 "Capacitors_SMD:C_1206_HandSoldering" H 6738 3800 50  0001 C CNN
F 3 "" H 6700 3950 50  0001 C CNN
	1    6700 3950
	1    0    0    -1  
$EndComp
$Comp
L C C4
U 1 1 5B1D3084
P 8000 3800
F 0 "C4" H 8025 3900 50  0000 L CNN
F 1 "5n" H 8025 3700 50  0000 L CNN
F 2 "Capacitors_SMD:C_1206_HandSoldering" H 8038 3650 50  0001 C CNN
F 3 "" H 8000 3800 50  0001 C CNN
	1    8000 3800
	1    0    0    -1  
$EndComp
Text Notes 7200 3500 2    60   ~ 0
dual pot log
$Comp
L Q_NPN_BCE Q2
U 1 1 5B1D331A
P 8350 3600
F 0 "Q2" H 8550 3650 50  0000 L CNN
F 1 "BC547C" H 8550 3550 50  0000 L CNN
F 2 "TO_SOT_Packages_SMD:SOT-23_Handsoldering" H 8550 3700 50  0001 C CNN
F 3 "" H 8350 3600 50  0001 C CNN
	1    8350 3600
	1    0    0    -1  
$EndComp
$Comp
L Q_NPN_BCE Q4
U 1 1 5B1D33E4
P 9250 4200
F 0 "Q4" H 9450 4250 50  0000 L CNN
F 1 "BC547C" H 9450 4150 50  0000 L CNN
F 2 "TO_SOT_Packages_SMD:SOT-23_Handsoldering" H 9450 4300 50  0001 C CNN
F 3 "" H 9250 4200 50  0001 C CNN
	1    9250 4200
	1    0    0    -1  
$EndComp
$Comp
L R R12
U 1 1 5B1D352E
P 8850 4200
F 0 "R12" V 8930 4200 50  0000 C CNN
F 1 "56k" V 8850 4200 50  0000 C CNN
F 2 "Resistors_SMD:R_1206_HandSoldering" V 8780 4200 50  0001 C CNN
F 3 "" H 8850 4200 50  0001 C CNN
	1    8850 4200
	0    1    1    0   
$EndComp
$Comp
L GND #PWR010
U 1 1 5B1D367E
P 8000 3950
F 0 "#PWR010" H 8000 3700 50  0001 C CNN
F 1 "GND" H 8000 3800 50  0000 C CNN
F 2 "" H 8000 3950 50  0001 C CNN
F 3 "" H 8000 3950 50  0001 C CNN
	1    8000 3950
	1    0    0    -1  
$EndComp
$Comp
L C C5
U 1 1 5B1D3E39
P 6000 4850
F 0 "C5" V 6150 4850 50  0000 L CNN
F 1 "100n" V 5850 4850 50  0000 L CNN
F 2 "Capacitors_SMD:C_1206_HandSoldering" H 6038 4700 50  0001 C CNN
F 3 "" H 6000 4850 50  0001 C CNN
	1    6000 4850
	0    1    1    0   
$EndComp
$Comp
L R R13
U 1 1 5B1D3EAA
P 6500 4850
F 0 "R13" V 6580 4850 50  0000 C CNN
F 1 "56k" V 6500 4850 50  0000 C CNN
F 2 "Resistors_SMD:R_1206_HandSoldering" V 6430 4850 50  0001 C CNN
F 3 "" H 6500 4850 50  0001 C CNN
	1    6500 4850
	0    1    1    0   
$EndComp
$Comp
L R R11
U 1 1 5B1D3FFB
P 8300 4400
F 0 "R11" V 8380 4400 50  0000 C CNN
F 1 "2k2" V 8300 4400 50  0000 C CNN
F 2 "Resistors_SMD:R_1206_HandSoldering" V 8230 4400 50  0001 C CNN
F 3 "" H 8300 4400 50  0001 C CNN
	1    8300 4400
	0    1    1    0   
$EndComp
$Comp
L R R64
U 1 1 5B1D40A2
P 7850 4400
F 0 "R64" V 7930 4400 50  0000 C CNN
F 1 "2k2" V 7850 4400 50  0000 C CNN
F 2 "Resistors_SMD:R_1206_HandSoldering" V 7780 4400 50  0001 C CNN
F 3 "" H 7850 4400 50  0001 C CNN
	1    7850 4400
	0    1    1    0   
$EndComp
$Comp
L GND #PWR011
U 1 1 5B1D40F5
P 7600 4400
F 0 "#PWR011" H 7600 4150 50  0001 C CNN
F 1 "GND" H 7600 4250 50  0000 C CNN
F 2 "" H 7600 4400 50  0001 C CNN
F 3 "" H 7600 4400 50  0001 C CNN
	1    7600 4400
	0    1    1    0   
$EndComp
$Comp
L R R9
U 1 1 5B1D4A6B
P 9350 4600
F 0 "R9" V 9430 4600 50  0000 C CNN
F 1 "4k7" V 9350 4600 50  0000 C CNN
F 2 "Resistors_SMD:R_1206_HandSoldering" V 9280 4600 50  0001 C CNN
F 3 "" H 9350 4600 50  0001 C CNN
	1    9350 4600
	1    0    0    -1  
$EndComp
Text GLabel 9350 3850 0    60   Input ~ 0
Vcc
Text GLabel 8450 3250 0    60   Input ~ 0
Vcc
Text Label 4450 4400 1    60   ~ 0
vb
$Comp
L POT R3
U 1 1 5B1D712D
P 3400 2850
F 0 "R3" V 3225 2850 50  0000 C CNN
F 1 "10k" V 3300 2850 50  0000 C CNN
F 2 "SR_PASSIVES_potentiometer:Potentiometer_SMD_SR_PASSIVES" H 3400 2850 50  0001 C CNN
F 3 "" H 3400 2850 50  0001 C CNN
	1    3400 2850
	1    0    0    -1  
$EndComp
Text GLabel 3400 2650 1    60   Input ~ 0
Vcc
Wire Wire Line
	2300 3800 2750 3800
Wire Wire Line
	2700 3950 2700 3800
Connection ~ 2700 3800
Wire Wire Line
	3050 3800 3250 3800
Wire Wire Line
	3550 3800 3950 3800
Wire Wire Line
	4450 3450 4450 3950
Wire Wire Line
	3700 3450 3700 3950
Connection ~ 3700 3800
Wire Wire Line
	4250 3800 4600 3800
Wire Wire Line
	3900 3450 3700 3450
Wire Wire Line
	4300 3450 4450 3450
Connection ~ 4450 3800
Wire Wire Line
	5200 3400 4900 3400
Wire Wire Line
	4900 3300 4900 3600
Connection ~ 4900 3400
Wire Wire Line
	5500 3200 5500 2900
Wire Wire Line
	5500 2900 4900 2900
Wire Wire Line
	4900 2700 4900 3000
Connection ~ 4900 2900
Wire Wire Line
	5750 3600 5500 3600
Wire Wire Line
	5500 3600 5500 3750
Wire Wire Line
	4900 4000 4900 4100
Wire Notes Line
	6400 3550 6450 3500
Wire Notes Line
	7550 3500 7500 3550
Wire Notes Line
	6450 3500 7550 3500
Wire Wire Line
	6800 3600 6550 3600
Wire Wire Line
	7100 3600 7350 3600
Wire Wire Line
	7650 3600 8150 3600
Wire Wire Line
	8000 3600 8000 3650
Wire Wire Line
	6700 3800 6700 3600
Connection ~ 6700 3600
Wire Wire Line
	6050 3600 6250 3600
Connection ~ 8000 3600
Wire Wire Line
	6700 4100 6700 4200
Wire Wire Line
	9050 4200 9000 4200
Wire Wire Line
	6700 4200 8700 4200
Wire Wire Line
	8450 3800 8450 4400
Connection ~ 8450 4200
Wire Wire Line
	4900 4050 5200 4050
Wire Wire Line
	5200 4050 5200 4850
Wire Wire Line
	5200 4850 5850 4850
Connection ~ 4900 4050
Wire Wire Line
	6150 4850 6350 4850
Wire Wire Line
	9050 4850 6650 4850
Wire Wire Line
	9050 4200 9050 4850
Wire Wire Line
	7700 4400 7600 4400
Wire Wire Line
	8000 4400 8150 4400
Wire Wire Line
	8100 4400 8100 4650
Wire Wire Line
	8100 4650 8150 4650
Connection ~ 8100 4400
Wire Wire Line
	9350 4450 9350 4400
Wire Wire Line
	9650 4450 9350 4450
Wire Wire Line
	9350 3850 9350 4000
Wire Wire Line
	8450 3250 8450 3400
Wire Wire Line
	4450 4400 4450 4250
Wire Wire Line
	4900 4400 4900 4600
Wire Wire Line
	3400 2700 3400 2650
$Comp
L CP1 C27
U 1 1 5B1D74EF
P 3700 3000
F 0 "C27" H 3725 3100 50  0000 L CNN
F 1 "1u" H 3725 2900 50  0000 L CNN
F 2 "Capacitors_SMD:CP_Elec_4x5.3" H 3700 3000 50  0001 C CNN
F 3 "" H 3700 3000 50  0001 C CNN
	1    3700 3000
	1    0    0    -1  
$EndComp
Wire Wire Line
	3700 2850 3550 2850
Wire Wire Line
	3700 2850 3700 2650
Text Label 3700 2750 1    60   ~ 0
vb
Wire Wire Line
	6400 3450 6400 3300
Wire Wire Line
	6400 3300 6150 3300
Wire Wire Line
	6150 3300 6150 3600
Connection ~ 6150 3600
Wire Wire Line
	7500 3450 7500 3300
Wire Wire Line
	7500 3300 7250 3300
Wire Wire Line
	7250 3300 7250 3600
Connection ~ 7250 3600
$Comp
L Jumper_NO_Small TP1
U 1 1 5B2029FE
P 5550 4500
F 0 "TP1" H 5550 4580 50  0000 C CNN
F 1 "vbuf" H 5560 4440 50  0000 C CNN
F 2 "SMD_Packages:SMD-1206_Pol" H 5550 4500 50  0001 C CNN
F 3 "" H 5550 4500 50  0001 C CNN
	1    5550 4500
	1    0    0    -1  
$EndComp
Wire Wire Line
	5450 4500 5200 4500
Connection ~ 5200 4500
$Comp
L GND #PWR012
U 1 1 5B202ACC
P 5750 4500
F 0 "#PWR012" H 5750 4250 50  0001 C CNN
F 1 "GND" H 5750 4350 50  0000 C CNN
F 2 "" H 5750 4500 50  0001 C CNN
F 3 "" H 5750 4500 50  0001 C CNN
	1    5750 4500
	0    -1   -1   0   
$EndComp
Wire Wire Line
	5750 4500 5650 4500
$Comp
L GND #PWR013
U 1 1 5B2199D1
P 2700 4250
F 0 "#PWR013" H 2700 4000 50  0001 C CNN
F 1 "GND" H 2700 4100 50  0000 C CNN
F 2 "" H 2700 4250 50  0001 C CNN
F 3 "" H 2700 4250 50  0001 C CNN
	1    2700 4250
	1    0    0    -1  
$EndComp
$Comp
L GND #PWR014
U 1 1 5B219DB6
P 3700 4250
F 0 "#PWR014" H 3700 4000 50  0001 C CNN
F 1 "GND" H 3700 4100 50  0000 C CNN
F 2 "" H 3700 4250 50  0001 C CNN
F 3 "" H 3700 4250 50  0001 C CNN
	1    3700 4250
	1    0    0    -1  
$EndComp
$Comp
L GND #PWR015
U 1 1 5B21AA5D
P 3400 3000
F 0 "#PWR015" H 3400 2750 50  0001 C CNN
F 1 "GND" H 3400 2850 50  0000 C CNN
F 2 "" H 3400 3000 50  0001 C CNN
F 3 "" H 3400 3000 50  0001 C CNN
	1    3400 3000
	1    0    0    -1  
$EndComp
$Comp
L GND #PWR016
U 1 1 5B21AAAB
P 3700 3150
F 0 "#PWR016" H 3700 2900 50  0001 C CNN
F 1 "GND" H 3700 3000 50  0000 C CNN
F 2 "" H 3700 3150 50  0001 C CNN
F 3 "" H 3700 3150 50  0001 C CNN
	1    3700 3150
	1    0    0    -1  
$EndComp
$Comp
L GND #PWR017
U 1 1 5B21AD51
P 9350 4750
F 0 "#PWR017" H 9350 4500 50  0001 C CNN
F 1 "GND" H 9350 4600 50  0000 C CNN
F 2 "" H 9350 4750 50  0001 C CNN
F 3 "" H 9350 4750 50  0001 C CNN
	1    9350 4750
	1    0    0    -1  
$EndComp
$EndSCHEMATC
