Component,Description,Part,References,Value,Footprint,Quantity Per PCB,Datasheet
1,Unpolarized capacitor,C,C1 C5 C7 C8 C12 C17 C20 C23 C29,100n,C_1206_HandSoldering,9,
2,Unpolarized capacitor,C,C2,100p,C_1206_HandSoldering,1,
3,Unpolarized capacitor,C,C11 C13 C19 C21,10n,C_1206_HandSoldering,4,
4,Polarised capacitor,CP1,C27,1u,CP_Elec_4x5.3,1,
5,Polarised capacitor,CP1,C6 C14 C15 C22,2.2u,CP_Elec_4x5.3,4,
6,Polarised capacitor,CP1,C10 C18 C24,22u,CP_Elec_4x5.3,3,
7,Unpolarized capacitor,C,C9 C16,47n,C_1206_HandSoldering,2,
8,Polarised capacitor,CP,C28,47u,CP_Elec_6.3x5.3,1,
9,Unpolarized capacitor,C,C3 C4,5n,C_1206_HandSoldering,2,
10,Diode,D,D1,1N4007,D_SOD-123,1,
11,Diode,D,D2 D3 D4 D5,BAT85,D_SOD-123,4,
12,"Generic connector, single row, 01x02",Conn_01x02_Male,J1,+9V power,Pin_Header_Straight_1x02_Pitch1.00mm,1,
13,2-pin audio jack receptable (mono/TS connector),Audio-Jack-2,J2,GuitarInput,WireConnection_1.00mmDrill,1,
14,2-pin audio jack receptable (mono/TS connector),Audio-Jack-2,J3,OutputToAmp,WireConnection_1.00mmDrill,1,
15,"Jumper, normally open",Jumper_NO_Small,JP1,vchf,SMD-1206_Pol,1,
16,"Jumper, normally open",Jumper_NO_Small,JP2,vclf,SMD-1206_Pol,1,
17,Transistor NPN (general),Q_NPN_BCE,Q1 Q2 Q3 Q4 Q5 Q7 Q8 Q10 Q12 Q13 Q14 Q15 Q18 Q22,BC547C,SOT-23_Handsoldering,14,
18,Transistor PNP (general),Q_PNP_BCE,Q6 Q11,BC557C,SOT-23_Handsoldering,2,
19,Transistor N-JFET (general),Q_NJFET_SDG,Q9 Q19,BF545A.215,SOT-23_Handsoldering,2,
20,Resistor,R,R27 R28 R45 R47 R54,100k,R_1206_HandSoldering,5,
21,Potentiometer,POT,R53,100k,Potentiometer_WirePads_Small,1,
22,Resistor,R,R6 R7 R18 R20 R34 R42,10k,R_1206_HandSoldering,6,
23,Potentiometer,POT,R3,10k,Potentiometer_SMD_SR_PASSIVES,1,
24,Potentiometer,POT,R55,10k,Potentiometer_WirePads_Small,1,
25,Resistor,R,R30 R46,16k,R_1206_HandSoldering,2,
26,Resistor,R,R4,1M,R_1206_HandSoldering,1,
27,Resistor,R,R19,1k,R_1206_HandSoldering,1,
28,Resistor,R,R37,200k,R_1206_HandSoldering,1,
29,Resistor,R,R24 R41,220,R_1206_HandSoldering,2,
30,Resistor,R,R16 R17 R22 R35 R36,220k,R_1206_HandSoldering,5,
31,Resistor,R,R15 R39,22k,R_1206_HandSoldering,2,
32,Resistor,R,R11 R14 R64,2k2,R_1206_HandSoldering,3,
33,Resistor,R,R23 R38,390k,R_1206_HandSoldering,2,
34,Resistor,R,R26 R31 R44 R50,470k,R_1206_HandSoldering,4,
35,Resistor,R,R67,4M7,R_1206_HandSoldering,1,
36,Resistor,R,R1 R5 R9 R10 R21 R29 R43 R48,4k7,R_1206_HandSoldering,8,
37,Potentiometer,POT,R32 R52,500k,Potentiometer_WirePads_Small,2,
38,Potentiometer,POT,R56,50k,Potentiometer_SMD_SR_PASSIVES,1,
39,"Dual Potentiometer, separate units",POT_Dual_Separate,R8,50k,R_Array_SIP6,1,
40,Resistor,R,R12 R13,56k,R_1206_HandSoldering,2,
41,Potentiometer,POT,R25 R33 R40 R51,5k,Potentiometer_WirePads_Small,4,
42,Resistor,R,R2,680k,R_1206_HandSoldering,1,
43,Resistor,R,RP33 RP49,100/1W,R_2512_HandSoldering,2,
44,Single Pole Single Throw (SPST) switch,SW_SPST,SW2,-6 dB,WireConnection_1.00mmDrill,1,





Component Groups:,44
Component Count:,115
Fitted Components:,115
Number of PCBs:,1
Total components:,115
Schematic Version:,
Schematic Date:,
BoM Date:,"pon, 23 lip 2018, 21:02:32"
Schematic Source:,/home/arkadiusz/KiCAD/BassCompressor/BassCompressor.sch
KiCad Version:,Eeschema 4.0.7-e2-6376~58~ubuntu16.04.1
