(module Potentiometer_SMD_SR_PASSIVES (layer F.Cu) (tedit 5B26AD98)
  (fp_text reference REF** (at 0 3.302) (layer F.SilkS)
    (effects (font (size 1 1) (thickness 0.15)))
  )
  (fp_text value Potentiometer_SMD_SR_PASSIVES (at 0 -2.54) (layer F.Fab)
    (effects (font (size 1 1) (thickness 0.15)))
  )
  (fp_line (start -1.524 2.032) (end -1.524 -1.016) (layer F.SilkS) (width 0.15))
  (fp_line (start 1.27 2.286) (end -1.27 2.286) (layer F.SilkS) (width 0.15))
  (fp_line (start 1.524 -1.016) (end 1.524 2.032) (layer F.SilkS) (width 0.15))
  (fp_line (start -1.27 -1.27) (end 1.27 -1.27) (layer F.SilkS) (width 0.15))
  (fp_arc (start -1.524 -1.27) (end -1.27 -1.27) (angle 90) (layer F.SilkS) (width 0.15))
  (fp_arc (start -1.524 2.286) (end -1.524 2.032) (angle 90) (layer F.SilkS) (width 0.15))
  (fp_arc (start 1.524 2.286) (end 1.27 2.286) (angle 90) (layer F.SilkS) (width 0.15))
  (fp_arc (start 1.524 -1.27) (end 1.524 -1.016) (angle 90) (layer F.SilkS) (width 0.15))
  (fp_line (start 0.762 -0.254) (end 0.762 0.508) (layer F.SilkS) (width 0.15))
  (fp_line (start -0.762 -0.254) (end -0.762 0.508) (layer F.SilkS) (width 0.15))
  (fp_arc (start 0 0.508) (end 0 1.27) (angle 90) (layer F.SilkS) (width 0.15))
  (fp_arc (start 0 0.508) (end 0.762 0.508) (angle 90) (layer F.SilkS) (width 0.15))
  (fp_line (start -0.762 -0.254) (end 0.762 -0.254) (layer F.SilkS) (width 0.15))
  (pad 2 smd rect (at 0 -0.7) (size 1.6 1.5) (layers F.Cu F.Paste F.Mask))
  (pad 1 smd rect (at -1 1.8) (size 1.2 1.2) (layers F.Cu F.Paste F.Mask))
  (pad 3 smd rect (at 1 1.8) (size 1.2 1.2) (layers F.Cu F.Paste F.Mask))
)
